…
myFARS$multi_veh %>% group_by(name, value) %>% summarize(n=n()) %>% 
  arrange(name, desc(n)) %>% mutate(rank=row_number()) %>%
  filter(rank<=3) %>%
  select(-rank)
#> `summarise()` has grouped output by 'name'. You can override using the
#> `.groups` argument.
#> # A tibble: 57 × 3
#> # Groups:   name [21]
#>    name   value                                                                n
#>    <chr>  <chr>                                                            <int>
#>  1 damage 12 Clock Value                                                    1971
#>  2 damage 11 Clock Value                                                    1705
#>  3 damage 1 Clock Value                                                     1597
#>  4 dr_sf1 Failure to Yield Right-of-Way                                       79
#>  5 dr_sf1 Overcorrecting                                                      46
#>  6 dr_sf1 Improper Lane Usage                                                 38
#>  7 dr_sf2 Failure to Obey Actual Traffic Sign,Traffic Control Devices or …     7
#>  8 dr_sf2 Overcorrecting                                                       4
#>  9 dr_sf2 Careless Driving                                                     3
#> 10 dr_sf3 Reported as Unknown                                                  1
#> # ℹ 47 more rows

myFARS$multi_per %>% group_by(name, value) %>% summarize(n=n()) %>% 
  arrange(name, desc(n)) %>% mutate(rank=row_number()) %>%
  filter(rank<=3) %>%
  select(-rank)
#> `summarise()` has grouped output by 'name'. You can override using the
#> `.groups` argument.
#> # A tibble: 42 × 3
#> # Groups:   name [14]
#>    name     value                                                              n
#>    <chr>    <chr>                                                          <int>
#>  1 drugres  Test Not Given                                                  3167
#>  2 drugres  Tested, No Drugs Found/Negative                                 1146
#>  3 drugres  Tetrahydrocannabinols (THC)                                      407
#>  4 drugspec Test Not Given                                                  3167
#>  5 drugspec Whole Blood                                                     2749
#>  6 drugspec Vitreous                                                         426
#>  7 mnmdstrd Not Distracted                                                    23
#>  8 mnmdstrd Adjusting or listening to Portable Audio Device (Other than o…     1
#>  9 mnmdstrd Distracted by Animal, Other Object, Event, or Activity             1
#> 10 mpr_act  Crossing Roadway                                                  84
#> # ℹ 32 more rows
…
The top three name-value pairs of each tibble are shown below.

``` r
myGESCRSS$multi_acc %>% group_by(name, value) %>% summarize(n=n()) %>% 
  arrange(name, desc(n)) %>% mutate(rank=row_number()) %>%
  filter(rank<=3) %>%
  select(-rank)
#> `summarise()` has grouped output by 'name'. You can override using the
#> `.groups` argument.
#> # A tibble: 44 × 3
#> # Groups:   name [15]
#>    name    value                                                               n
#>    <chr>   <chr>                                                           <int>
#>  1 cf1     Motor Vehicle struck by falling cargo,or something that came l…   540
#>  2 cf1     Regular Congestion                                                433
#>  3 cf1     Non-occupant struck vehicle                                       255
#>  4 cf2     Indication of a Stalled/Disabled Vehicle                           47
#>  5 cf2     Recent/Previous Crash scene Nearby                                 24
#>  6 cf2     Motor Vehicle struck by falling cargo,or something that came l…    15
#>  7 cf3     Reported as Unknown                                                 7
#>  8 cf3     Backup Due to Prior Crash                                           1
#>  9 cf3     Indication of a Stalled/Disabled Vehicle                            1
#> 10 crashrf Motor Vehicle struck by falling cargo,or something that came l…  1290
#> # ℹ 34 more rows

myGESCRSS$multi_veh %>% group_by(name, value) %>% summarize(n=n()) %>% 
  arrange(name, desc(n)) %>% mutate(rank=row_number()) %>%
  filter(rank<=3) %>%
  select(-rank)
#> `summarise()` has grouped output by 'name'. You can override using the
#> `.groups` argument.
#> # A tibble: 62 × 3
#> # Groups:   name [21]
#>    name   value                                                                n
#>    <chr>  <chr>                                                            <int>
#>  1 damage 12 Clock Value                                                   98421
#>  2 damage 6 Clock Value                                                    42402
#>  3 damage 11 Clock Value                                                   39565
#>  4 dr_sf1 Careless Driving                                                  7341
#>  5 dr_sf1 Looked But Did Not See                                            1313
#>  6 dr_sf1 Reported as Unknown                                               1072
#>  7 dr_sf2 Operating the Vehicle in an Erratic, Reckless or Negligent Mann…  1966
#>  8 dr_sf2 Reported as Unknown                                               1072
#>  9 dr_sf2 Careless Driving                                                   226
#> 10 dr_sf3 Reported as Unknown                                               1072
#> # ℹ 52 more rows

myGESCRSS$multi_per %>% group_by(name, value) %>% summarize(n=n()) %>% 
  arrange(name, desc(n)) %>% mutate(rank=row_number()) %>%
  filter(rank<=3) %>%
  select(-rank)
#> `summarise()` has grouped output by 'name'. You can override using the
#> `.groups` argument.
#> # A tibble: 29 × 3
#> # Groups:   name [10]
#>    name     value                                                              n
#>    <chr>    <chr>                                                          <int>
#>  1 mnmdstrd Not Distracted                                                  1650
#>  2 mnmdstrd Inattention (Inattentive), Details Unknown                       124
#>  3 mnmdstrd Reported as Unknown if Distracted                                 73
#>  4 mpr_act  Crossing Roadway                                                3421
#>  5 mpr_act  Movement Along Roadway with Traffic (In or Adjacent to Travel…   565
#>  6 mpr_act  In Roadway - Other (Working, Playing, Etc.)                      229
#>  7 mtm_crsh None Noted                                                      2621
#>  8 mtm_crsh Failure to Yield Right-Of-Way                                   1145
#>  9 mtm_crsh Improper Crossing of Roadway or Intersection (Jaywalking)        383
#> 10 nmaction Crossing Roadway                                                6886
#> # ℹ 19 more rows
```
…
