Download and Analyze Fatal Crash Data • rfars
…
The multi_ tibbles contain those variables for which there may be a varying number of values for any entity (e.g., driver impairments, vehicle events, weather conditions at time of crash). Each tibble has the requisite data elements corresponding to the entity: multi_acc includes st_case and year, multi_veh adds veh_no (vehicle number), and multi_per adds per_no (person number).

The top three name-value pairs of each tibble are shown below.

myFARS$multi_acc %>% group_by(name, value) %>% summarize(n=n()) %>% 
  arrange(name, desc(n)) %>% mutate(rank=row_number()) %>%
  filter(rank<=3) %>%
  select(-rank)
#> `summarise()` has grouped output by 'name'. You can override using the
#> `.groups` argument.
#> # A tibble: 21 × 3
#> # Groups:   name [7]
#>    name    value                                                               n
#>    <chr>   <chr>                                                           <int>
#>  1 cf1     Motor Vehicle struck by falling cargo,or something that came l…   702
#>  2 cf1     Police Pursuit Involved                                           343
#>  3 cf1     Indication of a Stalled/Disabled Vehicle                          313
#>  4 cf2     Reported as Unknown                                               248
#>  5 cf2     Indication of a Stalled/Disabled Vehicle                           68
#>  6 cf2     Recent/Previous Crash scene Nearby                                 43
#>  7 cf3     Reported as Unknown                                               248
#>  8 cf3     Indication of a Stalled/Disabled Vehicle                            4
#>  9 cf3     Motor Vehicle struck by falling cargo,or something that came l…     4
#> 10 crashrf Motor Vehicle struck by falling cargo,or something that came l…  1675
#> # … with 11 more rows

myFARS$multi_veh %>% group_by(name, value) %>% summarize(n=n()) %>% 
  arrange(name, desc(n)) %>% mutate(rank=row_number()) %>%
  filter(rank<=3) %>%
  select(-rank)
#> `summarise()` has grouped output by 'name'. You can override using the
#> `.groups` argument.
#> # A tibble: 65 × 3
#> # Groups:   name [22]
#>    name   value                                                                n
#>    <chr>  <chr>                                                            <int>
#>  1 damage 12 Clock Value                                                   83188
#>  2 damage 11 Clock Value                                                   45840
#>  3 damage 1 Clock Value                                                    43183
#>  4 dr_sf1 Failure to Yield Right-of-Way                                     3331
#>  5 dr_sf1 Careless Driving                                                  2996
#>  6 dr_sf1 Improper Lane Usage                                               2938
#>  7 dr_sf2 Reported as Unknown                                               1987
#>  8 dr_sf2 Operating the Vehicle in an Erratic, Reckless or Negligent Mann…   604
#>  9 dr_sf2 Failure to Obey Actual Traffic Sign,Traffic Control Devices or …   475
#> 10 dr_sf3 Reported as Unknown                                               1987
#> # … with 55 more rows

myFARS$multi_per %>% group_by(name, value) %>% summarize(n=n()) %>% 
  arrange(name, desc(n)) %>% mutate(rank=row_number()) %>%
  filter(rank<=3) %>%
  select(-rank)
#> `summarise()` has grouped output by 'name'. You can override using the
#> `.groups` argument.
#> # A tibble: 46 × 3
#> # Groups:   name [16]
#>    name     value                                           n
#>    <chr>    <chr>                                       <int>
#>  1 drugres  Test Not Given                             150302
#>  2 drugres  Tested, No Drugs Found/Negative             40884
#>  3 drugres  Other Drug                                  13496
#>  4 drugspec Test Not Given                             150304
#>  5 drugspec Whole Blood                                114007
#>  6 drugspec Reported as Unknown if Tested               11641
#>  7 mnmdstrd Not Distracted                               1896
#>  8 mnmdstrd Reported as Unknown if Distracted             496
#>  9 mnmdstrd Inattention (Inattentive), Details Unknown     82
#> 10 mpr_act  Crossing Roadway                             4461
#> # … with 36 more rows
…
The multi_ tibbles contain those variables for which there may be a varying number of values for any entity (e.g., driver impairments, vehicle events, weather conditions at time of crash). Each tibble has the requisite data elements corresponding to the entity: multi_acc includes st_case and year, multi_veh adds veh_no (vehicle number), and multi_per adds per_no (person number).

The top three name-value pairs of each tibble are shown below.

myGESCRSS$multi_acc %>% group_by(name, value) %>% summarize(n=n()) %>% 
  arrange(name, desc(n)) %>% mutate(rank=row_number()) %>%
  filter(rank<=3) %>%
  select(-rank)
#> `summarise()` has grouped output by 'name'. You can override using the
#> `.groups` argument.
#> # A tibble: 44 × 3
#> # Groups:   name [15]
#>    name    value                                                               n
#>    <chr>   <chr>                                                           <int>
#>  1 cf1     Motor Vehicle struck by falling cargo,or something that came l…   540
#>  2 cf1     Regular Congestion                                                433
#>  3 cf1     Non-occupant struck vehicle                                       255
#>  4 cf2     Indication of a Stalled/Disabled Vehicle                           47
#>  5 cf2     Recent/Previous Crash scene Nearby                                 24
#>  6 cf2     Motor Vehicle struck by falling cargo,or something that came l…    15
#>  7 cf3     Reported as Unknown                                                 7
#>  8 cf3     Backup Due to Prior Crash                                           1
#>  9 cf3     Indication of a Stalled/Disabled Vehicle                            1
#> 10 crashrf Motor Vehicle struck by falling cargo,or something that came l…  1290
#> # … with 34 more rows

myGESCRSS$multi_veh %>% group_by(name, value) %>% summarize(n=n()) %>% 
  arrange(name, desc(n)) %>% mutate(rank=row_number()) %>%
  filter(rank<=3) %>%
  select(-rank)
#> `summarise()` has grouped output by 'name'. You can override using the
#> `.groups` argument.
#> # A tibble: 62 × 3
#> # Groups:   name [21]
#>    name   value                                                                n
#>    <chr>  <chr>                                                            <int>
#>  1 damage 12 Clock Value                                                   98421
#>  2 damage 6 Clock Value                                                    42402
#>  3 damage 11 Clock Value                                                   39565
#>  4 dr_sf1 Careless Driving                                                  7341
#>  5 dr_sf1 Looked But Did Not See                                            1313
#>  6 dr_sf1 Reported as Unknown                                               1072
#>  7 dr_sf2 Operating the Vehicle in an Erratic, Reckless or Negligent Mann…  1966
#>  8 dr_sf2 Reported as Unknown                                               1072
#>  9 dr_sf2 Careless Driving                                                   226
#> 10 dr_sf3 Reported as Unknown                                               1072
#> # … with 52 more rows

myGESCRSS$multi_per %>% group_by(name, value) %>% summarize(n=n()) %>% 
  arrange(name, desc(n)) %>% mutate(rank=row_number()) %>%
  filter(rank<=3) %>%
  select(-rank)
#> `summarise()` has grouped output by 'name'. You can override using the
#> `.groups` argument.
#> # A tibble: 29 × 3
#> # Groups:   name [10]
#>    name     value                                                              n
#>    <chr>    <chr>                                                          <int>
#>  1 mnmdstrd Not Distracted                                                  1650
#>  2 mnmdstrd Inattention (Inattentive), Details Unknown                       124
#>  3 mnmdstrd Reported as Unknown if Distracted                                 73
#>  4 mpr_act  Crossing Roadway                                                3421
#>  5 mpr_act  Movement Along Roadway with Traffic (In or Adjacent to Travel…   565
#>  6 mpr_act  In Roadway - Other (Working, Playing, Etc.)                      229
#>  7 mtm_crsh None Noted                                                      2621
#>  8 mtm_crsh Failure to Yield Right-Of-Way                                   1145
#>  9 mtm_crsh Improper Crossing of Roadway or Intersection (Jaywalking)        383
#> 10 nmaction Crossing Roadway                                                6886
#> # … with 19 more rows
…
